<svg xmlns="http://www.w3.org/2000/svg" width="673.296" height="550.277" viewBox="0 0 673.296 550.277">
  <g id="Group_1463" data-name="Group 1463" transform="matrix(1, -0.017, 0.017, 1, -229.522, -3.863)">
    <g id="Group_1464" data-name="Group 1464" transform="translate(229.217 19.456)">
      <path id="Path_2548" data-name="Path 2548" d="M184.583,564.555c-15.707-95.867,27.8-132.924,102.086-123.487,116.627,14.816-5.891-133.909,138.419-150.6C526.483,278.731,649.731,184.4,666.994,119.79S785.958,6.093,832.3,48.306,787.557,467.37,787.557,467.37L296.938,568.162Z" transform="translate(-181.389 -32.563)" fill="#afddfd" opacity="0.18" style="mix-blend-mode: multiply;isolation: isolate"/>
      <path id="Path_2549" data-name="Path 2549" d="M240.411,556.613c-29.466-76.9,9.8-107.726,51.034-98.2s93.047-34.281,53.067-142.618,76.066-181.06,157.5-156.844S620.82-47.3,758.078,159.679C885.5,351.839,775.466,562.2,775.466,562.2Z" transform="translate(-168.98 -22.361)" fill="#d4ecff"/>
      <path id="Path_2550" data-name="Path 2550" d="M343.961,507.355c39.267,13.743,107.54-55.531,72.645-157.393s31.594-163.989,96.207-132.6S595.355,94.185,672.829,129.4c53.993,24.543,97.188,86.979,120.749,160.8,12.048,37.753,15.112,116.278,15.228,184,17.573-82.584,22.8-203.649-50.729-314.524C620.82-47.3,583.45,183.163,502.014,158.948s-197.481,48.507-157.5,156.844-11.836,152.14-53.067,142.618-80.5,21.3-51.034,98.2l43.172,1.45C273.932,507.559,309.324,495.231,343.961,507.355Z" transform="translate(-168.98 -22.361)" fill="#afddfd" opacity="0.18" style="mix-blend-mode: multiply;isolation: isolate"/>
      <path id="Path_2551" data-name="Path 2551" d="M653.913,269.886c10.522,0,11.1-15.835.595-16.346-.287-.015-.576-.021-.867-.021a17.551,17.551,0,0,0-5.376.842,18.055,18.055,0,0,0-35.711.569,16.712,16.712,0,0,0-11.346-1.1c-9.2,2.37-7.269,16.059,2.23,16.059Z" transform="translate(-76.109 20.016)" fill="#afddfd"/>
      <ellipse id="Ellipse_3" data-name="Ellipse 3" cx="236.714" cy="14.799" rx="236.714" ry="14.799" transform="translate(148.72 455.194)" fill="#e6f5ff"/>
      <ellipse id="Ellipse_4" data-name="Ellipse 4" cx="41.704" cy="2.97" rx="41.704" ry="2.97" transform="translate(264.135 469.432)" fill="#d4ecff"/>
      <g id="Group_1438" data-name="Group 1438" transform="translate(251.638 257.9)">
        <rect id="Rectangle_1028" data-name="Rectangle 1028" width="283.549" height="201.494" rx="7.962" transform="translate(0 0)" fill="#275cab"/>
        <rect id="Rectangle_1029" data-name="Rectangle 1029" width="175.42" height="223.789" rx="1.482" transform="translate(245.691 13.037) rotate(90)" fill="#d4ecff"/>
        <path id="Path_2552" data-name="Path 2552" d="M621.569,248.554H401.121a1.671,1.671,0,0,0-1.67,1.67V255H613.833a1.672,1.672,0,0,1,1.671,1.67v167.3h6.066a1.673,1.673,0,0,0,1.671-1.671V250.224A1.672,1.672,0,0,0,621.569,248.554Z" transform="translate(-377.549 -235.517)" fill="#afddfd"/>
        <path id="Path_2553" data-name="Path 2553" d="M603.771,320.327a9.126,9.126,0,1,0-9.126,9.126A9.126,9.126,0,0,0,603.771,320.327Z" transform="translate(-330.215 -219.58)" fill="#fff"/>
        <path id="Path_2554" data-name="Path 2554" d="M405.566,426.615l118.605,0c-6.639,4.856-11.823,9.217-19.168,13.038H390.964a8.973,8.973,0,0,1-8.973-8.973V247.127a8.973,8.973,0,0,1,8.973-8.965h192q2.365,6.4,4.191,13.033H405.566a1.672,1.672,0,0,0-1.676,1.676V424.947A1.671,1.671,0,0,0,405.566,426.615Z" transform="translate(-381.991 -238.16)" fill="#366dbf"/>
      </g>
      <g id="Group_1442" data-name="Group 1442" transform="translate(288.434 116.203)">
        <rect id="Rectangle_1030" data-name="Rectangle 1030" width="2.14" height="104.424" transform="translate(30.826)" fill="#6a99de"/>
        <rect id="Rectangle_1031" data-name="Rectangle 1031" width="2.14" height="128.41" transform="translate(184.274)" fill="#6a99de"/>
        <g id="Group_1441" data-name="Group 1441" transform="translate(0 97.898)">
          <rect id="Rectangle_1032" data-name="Rectangle 1032" width="127.251" height="185.019" rx="9.884" transform="translate(0 126.393) rotate(-83.342)" fill="#fff"/>
          <path id="Path_2555" data-name="Path 2555" d="M604.774,246.807l1.175-10.073a12.4,12.4,0,0,0-10.877-13.752L435.93,204.407a12.4,12.4,0,0,0-13.752,10.877L421,225.357Z" transform="translate(-408.863 -202.97)" fill="#275cab"/>
          <g id="Group_1439" data-name="Group 1439" transform="translate(24.258 11.782)">
            <path id="Path_2556" data-name="Path 2556" d="M437.306,216.355a3.332,3.332,0,1,1-2.924-3.7A3.333,3.333,0,0,1,437.306,216.355Z" transform="translate(-430.664 -212.637)" fill="#fff"/>
            <path id="Path_2557" data-name="Path 2557" d="M450.031,217.84a3.332,3.332,0,1,1-2.923-3.7A3.331,3.331,0,0,1,450.031,217.84Z" transform="translate(-427.426 -212.259)" fill="#d4ecff"/>
            <path id="Path_2558" data-name="Path 2558" d="M463.223,219.38a3.332,3.332,0,1,1-2.924-3.7A3.332,3.332,0,0,1,463.223,219.38Z" transform="translate(-424.071 -211.867)" fill="#c9515b"/>
          </g>
          <g id="Group_1440" data-name="Group 1440" transform="translate(32.938 45.753)">
            <path id="Path_2559" data-name="Path 2559" d="M438.669,279.761l22.985-40.043,10.707,1.3-5.135,42.213,4.641.565-1.085,8.925-4.641-.566-1.379,11.335-9.638-1.172,1.377-11.335-18.92-2.3Zm18.92,2.3,2.855-23.472-12.761,22.267Z" transform="translate(-437.583 -239.718)" fill="#c9515b"/>
            <path id="Path_2560" data-name="Path 2560" d="M478.143,257.2c1.217-9.995,7.176-15.066,16.814-13.894s14.21,7.525,12.994,17.519L504,293.308c-1.214,9.995-7.174,15.066-16.814,13.894s-14.208-7.525-12.993-17.52Zm5.789,34.3c-.542,4.463,1.216,6.4,4.338,6.777s5.294-1.078,5.837-5.539L498.21,259c.543-4.462-1.214-6.4-4.338-6.777s-5.294,1.078-5.835,5.539Z" transform="translate(-428.319 -238.848)" fill="#c9515b"/>
            <path id="Path_2561" data-name="Path 2561" d="M508.678,288.277l22.985-40.043,10.709,1.3-5.135,42.213,4.641.564-1.085,8.925-4.641-.564-1.379,11.333-9.639-1.172,1.379-11.335-18.92-2.3Zm18.92,2.3,2.856-23.472-12.762,22.267Z" transform="translate(-419.773 -237.552)" fill="#c9515b"/>
          </g>
        </g>
      </g>
      <g id="Group_1445" data-name="Group 1445" transform="translate(270.714 314.828)">
        <path id="Path_2562" data-name="Path 2562" d="M411.348,337.7a85.6,85.6,0,0,0-1.791,19.275c.321,8.724-.716,66.07-.716,66.07h7s9.971-44.913,10.344-48.461,5.388-39.017,5.388-39.017Z" transform="translate(-394.236 -270.31)" fill="#0b3e8a"/>
        <path id="Path_2563" data-name="Path 2563" d="M414.552,335.18s1.612,12.253,4.354,20.958,16.212,67,16.212,67h7s-1.29-44.913-1.774-48.461-4.03-39.017-4.03-39.017Z" transform="translate(-392.783 -270.408)" fill="#164fa6"/>
        <path id="Path_2564" data-name="Path 2564" d="M431.4,405.293v4.888h13.333a.765.765,0,0,0,.423-1.4c-1.949-1.3-5.073-3.087-7.975-3.486Z" transform="translate(-388.497 -252.572)" fill="#0b3e8a"/>
        <path id="Path_2565" data-name="Path 2565" d="M409.124,405.293v4.888h13.334a.765.765,0,0,0,.423-1.4c-1.949-1.3-5.073-3.087-7.977-3.486Z" transform="translate(-394.164 -252.572)" fill="#0b3e8a"/>
        <g id="Group_1443" data-name="Group 1443" transform="translate(21.869)">
          <path id="Path_2566" data-name="Path 2566" d="M433.187,284.746l.013,0c-.009-.014-.024-.025-.034-.039a3.065,3.065,0,0,0-.419-.416,2.242,2.242,0,0,0-.223-.153,2.71,2.71,0,0,0-.388-.189c-.078-.033-.149-.068-.235-.1a4.32,4.32,0,0,0-.8-.181c-4.043-.522-5.706.682-5.706.682s-4.655-.513-7.2,1.7c-1.746,1.513-8.152,13.248,2.208,17.494.315.129.617.243.909.345.1.034.183.058.276.088.191.063.383.127.564.178.109.03.211.053.316.079.156.039.312.08.462.112.107.021.207.036.311.055.137.024.274.048.4.065.1.013.2.019.295.028.123.011.245.023.361.026.1,0,.186,0,.276,0,.109,0,.217,0,.321-.009.089-.005.174-.015.258-.024s.193-.024.285-.04.161-.031.238-.049.172-.044.255-.069.146-.046.216-.073.152-.059.226-.093.133-.06.2-.094.133-.075.2-.115.12-.074.177-.114.117-.088.173-.134.108-.088.159-.134.1-.1.148-.149.1-.1.142-.152.084-.107.125-.162.087-.11.125-.169.068-.109.1-.164.079-.125.114-.191c.026-.05.049-.1.074-.152,1.105-2.253.447-5.514.447-5.514l3.226-5.6S434.695,286.881,433.187,284.746Z" transform="translate(-414.632 -283.543)" fill="#0b3e8a"/>
          <path id="Path_2567" data-name="Path 2567" d="M424.157,293.138s-1.359-1.359-2.378,0-.34,4.417,1.358,4.586c0,0-.509,4.417-3.906,4.246v3.568h7.983v-2.718s4.926-2.038,4.755-6.114a22.518,22.518,0,0,0-1.358-6.964A11.1,11.1,0,0,1,424.157,293.138Z" transform="translate(-413.462 -281.967)" fill="#edbc9c"/>
          <path id="Path_2568" data-name="Path 2568" d="M424.726,301.511c.79.33.651.828.687,1.577h1.148v-2.718s-1.934.615-4.767-1A12.529,12.529,0,0,0,424.726,301.511Z" transform="translate(-412.81 -279.517)" fill="#dd9f80"/>
        </g>
        <path id="Path_2569" data-name="Path 2569" d="M426.385,287.444s-4.138-1.648-4.621-.413c-.317.809.488,1.507,1.593,2.211l-.975.159a.256.256,0,0,0-.123.45,5.476,5.476,0,0,0,2.585.421Z" transform="translate(-390.966 -282.773)" fill="#edbc9c"/>
        <g id="Group_1444" data-name="Group 1444" transform="translate(0 4.513)">
          <path id="Path_2570" data-name="Path 2570" d="M405.812,324.694l5.545,17.866-.1-.9.1.9,1.872-26.017Z" transform="translate(-395.007 -279.661)" fill="none"/>
          <path id="Path_2571" data-name="Path 2571" d="M462.164,297.663c-7.89-5.847-29.439-10.522-29.439-10.522l-1.776,3.235s19.564,7.582,18.272,8.712c-.758.667-10.319,5.046-13.555,6.522a5.139,5.139,0,0,1-2.225.455l-9.9-.055a15.63,15.63,0,0,0-12.77,5.608c-5.025,5.784-13.569,19.177-13.569,19.177l14.39,21.164,1.593,2.337.015-.028-.015.2s.513.055,1.419.141c4.626.428,19.451,1.6,27.3-.064l.217-.049-.371-34.719A134.664,134.664,0,0,0,462.4,299.79,1.45,1.45,0,0,0,462.164,297.663ZM413.876,345.01l-1.4-3.068L408,332.171l7.42-8.312L414.087,342.1Z" transform="translate(-397.198 -287.141)" fill="#81c4ef"/>
        </g>
        <path id="Path_2572" data-name="Path 2572" d="M409.555,330.828l1.4,3.068-.681,9.259-.014.028-1.593-2.338Z" transform="translate(-394.28 -271.515)" fill="#60b1e6"/>
        <path id="Path_2573" data-name="Path 2573" d="M430.479,316.393c-1.332.967-.995,9.553-1.325,14.922-.551,8.99-1.088,16.769-.692,21.785a40.072,40.072,0,0,0,5.519-.692l.217-.049-.371-34.719a134.663,134.663,0,0,0,20.651-19.984,1.45,1.45,0,0,0-.232-2.127A176.858,176.858,0,0,1,430.479,316.393Z" transform="translate(-389.279 -280.495)" fill="#60b1e6"/>
        <path id="Path_2574" data-name="Path 2574" d="M436.817,373.2c-.349-2.559-2.293-21.737-3.348-32.22l-5.035.554s7.344,60.371,7.827,80.127h2.329S437.3,376.751,436.817,373.2Z" transform="translate(-389.252 -268.931)" fill="#0b3e8a"/>
      </g>
      <g id="Group_1452" data-name="Group 1452" transform="translate(211.09 386.94)">
        <g id="Group_1451" data-name="Group 1451">
          <g id="Group_1446" data-name="Group 1446" transform="translate(12.45)">
            <path id="Path_2575" data-name="Path 2575" d="M374.278,404.657s-2.159-2.016-.71-9.665,5.124-15,3.322-23.293-15.943-29.221-15.991-30.613-4.363,24.341,2.95,34.478,8.192,13.653,7.868,18.984.075,9.624.877,10.863Z" transform="translate(-359.592 -341.032)" fill="#5c87c7"/>
            <path id="Path_2576" data-name="Path 2576" d="M372.675,389.262c-.85,3.412-1.364,11.967-.005,14.015.127.191.31.083.536-.271-.414-1.415-.685-3.894.1-8.026,1.449-7.649,5.124-14.995,3.322-23.293s-15.943-29.221-15.991-30.613c0,0,2.131,17.432,9.306,29.432C375.078,379.1,373.525,385.849,372.675,389.262Z" transform="translate(-359.327 -341.021)" fill="#6a99de"/>
          </g>
          <g id="Group_1447" data-name="Group 1447" transform="translate(28.498 18.666)">
            <path id="Path_2577" data-name="Path 2577" d="M373.6,400.34s-4.153-10.371,2.886-19.35,18.3-20.51,18.524-25.078c0,0,2.894,21.686-6.271,27.826s-15.59,7.119-14,16.563Z" transform="translate(-372.385 -355.912)" fill="#5c87c7"/>
            <path id="Path_2578" data-name="Path 2578" d="M383.287,379.378c-10.217,7.437-11.052,16-9.467,19.977a1.011,1.011,0,0,0,.665.6c-1.37-9.117,5-10.154,14.05-16.215,9.165-6.14,6.271-27.826,6.271-27.826S393.505,371.941,383.287,379.378Z" transform="translate(-372.179 -355.912)" fill="#6a99de"/>
          </g>
          <g id="Group_1449" data-name="Group 1449" transform="translate(0 14.536)">
            <path id="Path_2579" data-name="Path 2579" d="M372.55,401.411a36.267,36.267,0,0,0,.623-11.42c-.709-5.93-6.9-9.265-12.689-15.527-2.977-3.223-3.857-20.261-2.012-21.844,0,0-10.217,12.382-8.64,21.448s18.243,14.956,19.785,19.338a24.313,24.313,0,0,1,1.415,8.057Z" transform="translate(-349.666 -352.62)" fill="#5c87c7"/>
            <g id="Group_1448" data-name="Group 1448" transform="translate(4.115)">
              <path id="Path_2580" data-name="Path 2580" d="M354.184,357.447c-3.377,9.145.085,20.219,11.3,27.1,8.259,5.064,5.628,15.595,5.628,15.595l1.35-4.155a33,33,0,0,0-.125-6.041c-.709-5.929-6.9-9.265-12.689-15.527-2.871-3.107-3.792-19.063-2.2-21.613A54.843,54.843,0,0,0,354.184,357.447Z" transform="translate(-352.947 -352.573)" fill="#6a99de"/>
              <path id="Path_2581" data-name="Path 2581" d="M356.538,352.851l.186-.231A1.03,1.03,0,0,0,356.538,352.851Z" transform="translate(-352.033 -352.62)" fill="#5c87c7" opacity="0.56"/>
            </g>
          </g>
          <g id="Group_1450" data-name="Group 1450" transform="translate(31.854 40.896)">
            <path id="Path_2582" data-name="Path 2582" d="M375.06,395.379s2.395-8.885,8.317-10.08,12.723-9.947,13.091-11.665C396.467,373.634,395.469,390.139,375.06,395.379Z" transform="translate(-375.06 -373.634)" fill="#5c87c7"/>
            <path id="Path_2583" data-name="Path 2583" d="M382.571,388.235c-3.629,1.815-5.137,4.255-5.674,6.471,18.171-5.844,19.1-21.072,19.1-21.072a6.5,6.5,0,0,1-.923,1.736C393.3,378.492,388.981,385.03,382.571,388.235Z" transform="translate(-374.593 -373.634)" fill="#6a99de"/>
          </g>
        </g>
        <path id="Path_2584" data-name="Path 2584" d="M391.559,388.361H360.583l3.678,23.136a3.614,3.614,0,0,0,3.569,3.046h16.481a3.613,3.613,0,0,0,3.569-3.046Z" transform="translate(-346.889 -328.992)" fill="#afddfd"/>
        <path id="Path_2585" data-name="Path 2585" d="M384.054,388.361H360.583l.608,3.828h22.254L380.376,411.5a3.614,3.614,0,0,1-3.569,3.046h7.5a3.613,3.613,0,0,0,3.569-3.046l3.679-23.136Z" transform="translate(-346.889 -328.992)" fill="#5c87c7" opacity="0.56"/>
      </g>
      <g id="Group_1458" data-name="Group 1458" transform="translate(337.784 384.328)">
        <rect id="Rectangle_1033" data-name="Rectangle 1033" width="139.997" height="28.464" transform="translate(0 20.723)" fill="#c9515b"/>
        <rect id="Rectangle_1034" data-name="Rectangle 1034" width="139.997" height="6.909" transform="translate(0 20.723)" fill="#983f46" opacity="0.29" style="mix-blend-mode: multiply;isolation: isolate"/>
        <path id="Path_2586" data-name="Path 2586" d="M461.066,355.469h12.778l-3.425,6.911H457.634Z" transform="translate(-448.894 -334.746)" fill="#db7d37"/>
        <path id="Path_2587" data-name="Path 2587" d="M484.014,355.469h12.778l-3.425,6.911H480.589Z" transform="translate(-443.054 -334.746)" fill="#db7d37"/>
        <path id="Path_2588" data-name="Path 2588" d="M506.964,355.469h12.778l-3.425,6.911H503.539Z" transform="translate(-437.216 -334.746)" fill="#db7d37"/>
        <path id="Path_2589" data-name="Path 2589" d="M529.913,355.469h12.771l-3.425,6.911H526.488Z" transform="translate(-431.378 -334.746)" fill="#db7d37"/>
        <path id="Path_2590" data-name="Path 2590" d="M565.537,355.469v.193l-3.335,6.719H549.438l3.425-6.911Z" transform="translate(-425.54 -334.746)" fill="#db7d37"/>
        <rect id="Rectangle_1035" data-name="Rectangle 1035" width="9.869" height="38.92" transform="translate(17.427 49.189)" fill="#afddfd"/>
        <rect id="Rectangle_1036" data-name="Rectangle 1036" width="9.869" height="38.92" transform="translate(113.468 49.189)" fill="#afddfd"/>
        <rect id="Rectangle_1037" data-name="Rectangle 1037" width="9.869" height="4.42" transform="translate(17.427 16.275)" fill="#afddfd"/>
        <rect id="Rectangle_1038" data-name="Rectangle 1038" width="9.869" height="4.42" transform="translate(113.468 16.275)" fill="#afddfd"/>
        <g id="Group_1453" data-name="Group 1453" transform="translate(17.427 16.275)">
          <path id="Path_2591" data-name="Path 2591" d="M464.559,383.04h7.627v34.049h2.242v-38.95h-9.869Z" transform="translate(-464.559 -345.255)" fill="#5c87c7" opacity="0.56"/>
          <path id="Path_2592" data-name="Path 2592" d="M541.123,383.04h6.951v34.049h2.918v-38.95h-9.869Z" transform="translate(-445.082 -345.255)" fill="#5c87c7" opacity="0.56"/>
          <path id="Path_2593" data-name="Path 2593" d="M472.186,355.79h-7.627v.557h9.869v-4.423h-2.242Z" transform="translate(-464.559 -351.924)" fill="#5c87c7" opacity="0.56"/>
          <path id="Path_2594" data-name="Path 2594" d="M548.074,351.924v3.866h-6.951v.557h9.869v-4.423Z" transform="translate(-445.082 -351.924)" fill="#5c87c7" opacity="0.56"/>
        </g>
        <g id="Group_1455" data-name="Group 1455" transform="translate(0 20.723)">
          <g id="Group_1454" data-name="Group 1454">
            <path id="Path_2595" data-name="Path 2595" d="M475.616,355.469,461.5,383.934H450.666v-3.927l12.172-24.538Z" transform="translate(-450.666 -355.469)" fill="#fff"/>
            <path id="Path_2596" data-name="Path 2596" d="M486.183,355.469l-14.119,28.464h12.778l14.119-28.464Z" transform="translate(-445.223 -355.469)" fill="#fff"/>
            <path id="Path_2597" data-name="Path 2597" d="M521.91,355.469l-14.119,28.464H495.014l14.119-28.464Z" transform="translate(-439.385 -355.469)" fill="#fff"/>
            <path id="Path_2598" data-name="Path 2598" d="M544.853,355.469l-14.112,28.464H517.963l14.119-28.464Z" transform="translate(-433.547 -355.469)" fill="#fff"/>
            <path id="Path_2599" data-name="Path 2599" d="M555.031,355.469l-14.119,28.464h12.771l14.022-28.272Z" transform="translate(-427.709 -355.469)" fill="#fff"/>
          </g>
        </g>
        <g id="Group_1457" data-name="Group 1457" transform="translate(8.741 20.723)">
          <g id="Group_1456" data-name="Group 1456">
            <path id="Path_2600" data-name="Path 2600" d="M473.844,355.469l-3.425,6.911H457.634l3.432-6.911Z" transform="translate(-457.634 -355.469)" fill="#e6f5ff"/>
            <path id="Path_2601" data-name="Path 2601" d="M496.792,355.469l-3.425,6.911H480.589l3.425-6.911Z" transform="translate(-451.795 -355.469)" fill="#e6f5ff"/>
            <path id="Path_2602" data-name="Path 2602" d="M519.741,355.469l-3.425,6.911H503.539l3.425-6.911Z" transform="translate(-445.957 -355.469)" fill="#e6f5ff"/>
            <path id="Path_2603" data-name="Path 2603" d="M542.684,355.469l-3.425,6.911H526.488l3.425-6.911Z" transform="translate(-440.119 -355.469)" fill="#e6f5ff"/>
            <path id="Path_2604" data-name="Path 2604" d="M565.537,355.662l-3.335,6.719H549.438l3.425-6.911Z" transform="translate(-434.281 -355.469)" fill="#e6f5ff"/>
          </g>
        </g>
        <circle id="Ellipse_5" data-name="Ellipse 5" cx="8.799" cy="8.799" r="8.799" transform="translate(12.006 2.827) rotate(-9.244)" fill="#c9515b"/>
        <path id="Path_2605" data-name="Path 2605" d="M473.084,347.809A3.988,3.988,0,1,0,469.1,351.8,3.988,3.988,0,0,0,473.084,347.809Z" transform="translate(-446.992 -337.71)" fill="#fff"/>
        <circle id="Ellipse_6" data-name="Ellipse 6" cx="8.799" cy="8.799" r="8.799" transform="matrix(0.987, -0.161, 0.161, 0.987, 108.246, 2.827)" fill="#c9515b"/>
        <path id="Path_2606" data-name="Path 2606" d="M549.807,347.809a3.988,3.988,0,1,0-3.988,3.988A3.988,3.988,0,0,0,549.807,347.809Z" transform="translate(-427.475 -337.71)" fill="#fff"/>
      </g>
      <g id="Group_1461" data-name="Group 1461" transform="translate(482.67 419.516)">
        <path id="Path_2607" data-name="Path 2607" d="M613.6,416.906H569.01l6.82-16.532v-.01l2.743-6.671.755-1.829,1.232-2.975.252-.607,2.742-6.671.5-1.212,4.861-11.8a2.579,2.579,0,0,1,4.768,0l4.861,11.8.5,1.212,2.743,6.671.252.607,1.232,2.975.755,1.829,2.743,6.671v.01Z" transform="translate(-565.448 -367.001)" fill="#c9515b"/>
        <path id="Path_2608" data-name="Path 2608" d="M571.933,401.134l-2.921,7.088H613.6l-2.921-7.088Z" transform="translate(-565.447 -358.318)" fill="#983f46" opacity="0.29" style="mix-blend-mode: multiply;isolation: isolate"/>
        <rect id="Rectangle_1039" data-name="Rectangle 1039" width="51.066" height="7.219" transform="translate(0 45.667)" fill="#afddfd"/>
        <rect id="Rectangle_1040" data-name="Rectangle 1040" width="11.033" height="7.219" transform="translate(40.033 45.667)" fill="#5c87c7" opacity="0.56"/>
        <g id="Group_1460" data-name="Group 1460" transform="translate(10.383 0.004)">
          <path id="Path_2609" data-name="Path 2609" d="M607.96,412.664h-6.306l-5.066-12.287v-.01l-2.743-6.67-.755-1.829-1.232-2.977-.252-.606-2.742-6.671-.5-1.213-4.087-9.936.765-1.867a2.579,2.579,0,0,1,4.768,0l4.861,11.8.5,1.213,2.743,6.671.252.606,1.232,2.977.755,1.829,2.743,6.67v.01Z" transform="translate(-571.948 -367.004)" fill="#983f46" opacity="0.29" style="mix-blend-mode: multiply;isolation: isolate"/>
          <g id="Group_1459" data-name="Group 1459" transform="translate(0 14.607)">
            <path id="Path_2610" data-name="Path 2610" d="M599.4,385.319H578.419l2.743-6.671h15.5Z" transform="translate(-573.437 -378.648)" fill="#fff"/>
            <path id="Path_2611" data-name="Path 2611" d="M605.394,394.951v.009H574.447v-.009l2.743-6.671h25.461Z" transform="translate(-574.447 -376.198)" fill="#fff"/>
            <path id="Path_2612" data-name="Path 2612" d="M596.981,385.319h-6.307l-2.743-6.671h6.307Z" transform="translate(-571.017 -378.648)" fill="#e6f5ff"/>
            <path id="Path_2613" data-name="Path 2613" d="M600.953,394.951v.009h-6.307v-.009L591.9,388.28h6.307Z" transform="translate(-570.006 -376.198)" fill="#e6f5ff"/>
          </g>
        </g>
      </g>
      <g id="Group_1646" data-name="Group 1646" transform="translate(578.747 455.892)">
        <path id="Path_2607-2" data-name="Path 2607" d="M642.26,448.987H569.01l11.2-27.159v-.017l4.507-10.959,1.241-3,2.024-4.888.414-1L592.9,391l.829-1.991,7.985-19.39a4.236,4.236,0,0,1,7.833,0l7.985,19.39.826,1.991,4.507,10.959.414,1,2.024,4.888,1.241,3,4.507,10.959v.017Z" transform="translate(-563.157 -367.001)" fill="#c9515b"/>
        <path id="Path_2608-2" data-name="Path 2608" d="M573.811,401.134l-4.8,11.644h73.253l-4.8-11.644Z" transform="translate(-563.156 -330.794)" fill="#983f46" opacity="0.29" style="mix-blend-mode: multiply;isolation: isolate"/>
        <rect id="Rectangle_1039-2" data-name="Rectangle 1039" width="83.894" height="11.86" transform="translate(0 75.023)" fill="#afddfd"/>
        <rect id="Rectangle_1040-2" data-name="Rectangle 1040" width="18.125" height="11.86" transform="translate(65.769 75.023)" fill="#5c87c7" opacity="0.56"/>
        <g id="Group_1460-2" data-name="Group 1460" transform="translate(17.057 0.006)">
          <path id="Path_2609-2" data-name="Path 2609" d="M623.188,442.016H612.828L604.5,421.831v-.017L600,410.857l-1.241-3-2.024-4.89-.414-1-4.5-10.959-.828-1.993-6.714-16.323,1.257-3.066a4.236,4.236,0,0,1,7.833,0l7.985,19.39.827,1.993,4.507,10.959.414,1,2.024,4.89,1.241,3,4.507,10.957v.017Z" transform="translate(-564.025 -367.004)" fill="#983f46" opacity="0.29" style="mix-blend-mode: multiply;isolation: isolate"/>
          <g id="Group_1459-2" data-name="Group 1459" transform="translate(0 23.997)">
            <path id="Path_2610-2" data-name="Path 2610" d="M612.89,389.607H578.419l4.506-10.959h25.459Z" transform="translate(-570.234 -378.648)" fill="#fff"/>
            <path id="Path_2611-2" data-name="Path 2611" d="M625.288,399.239v.015H574.447v-.015l4.506-10.959h41.828Z" transform="translate(-574.447 -368.431)" fill="#fff"/>
            <path id="Path_2612-2" data-name="Path 2612" d="M602.8,389.607H592.438l-4.506-10.959h10.361Z" transform="translate(-560.143 -378.648)" fill="#e6f5ff"/>
            <path id="Path_2613-2" data-name="Path 2613" d="M606.771,399.239v.015H596.409v-.015L591.9,388.28h10.361Z" transform="translate(-555.93 -368.431)" fill="#e6f5ff"/>
          </g>
        </g>
      </g>
      <g id="Group_1647" data-name="Group 1647" transform="translate(131.354 485.279)">
        <path id="Path_2607-3" data-name="Path 2607" d="M597.4,398.775H569.01l4.342-10.526v-.006L575.1,384l.481-1.164.784-1.894.161-.387,1.746-4.247.321-.772,3.095-7.515a1.642,1.642,0,0,1,3.036,0l3.095,7.515.32.772,1.747,4.247.161.387.784,1.894L591.31,384l1.747,4.247v.006Z" transform="translate(-566.742 -367.001)" fill="#c9515b"/>
        <path id="Path_2608-3" data-name="Path 2608" d="M570.871,401.134l-1.86,4.513H597.4l-1.86-4.513Z" transform="translate(-566.742 -373.873)" fill="#983f46" opacity="0.29" style="mix-blend-mode: multiply;isolation: isolate"/>
        <rect id="Rectangle_1039-3" data-name="Rectangle 1039" width="32.514" height="4.596" transform="translate(0 29.076)" fill="#afddfd"/>
        <rect id="Rectangle_1040-3" data-name="Rectangle 1040" width="7.025" height="4.596" transform="translate(25.489 29.076)" fill="#5c87c7" opacity="0.56"/>
        <g id="Group_1460-3" data-name="Group 1460" transform="translate(6.611 0.002)">
          <path id="Path_2609-3" data-name="Path 2609" d="M599.354,396.075h-4.015l-3.226-7.823v-.006L590.367,384l-.481-1.164-.784-1.9-.16-.386-1.746-4.247-.321-.772-2.6-6.326.487-1.188a1.642,1.642,0,0,1,3.036,0l3.095,7.515.32.772,1.747,4.247.161.386.784,1.9.481,1.164,1.747,4.246v.006Z" transform="translate(-576.425 -367.004)" fill="#983f46" opacity="0.29" style="mix-blend-mode: multiply;isolation: isolate"/>
          <g id="Group_1459-3" data-name="Group 1459" transform="translate(0 9.3)">
            <path id="Path_2610-3" data-name="Path 2610" d="M591.778,382.9H578.419l1.746-4.247h9.867Z" transform="translate(-575.247 -378.648)" fill="#fff"/>
            <path id="Path_2611-3" data-name="Path 2611" d="M594.151,392.527v.006h-19.7v-.006l1.746-4.247H592.4Z" transform="translate(-574.447 -380.588)" fill="#fff"/>
            <path id="Path_2612-3" data-name="Path 2612" d="M593.693,382.9h-4.016l-1.746-4.247h4.016Z" transform="translate(-577.162 -378.648)" fill="#e6f5ff"/>
            <path id="Path_2613-3" data-name="Path 2613" d="M597.665,392.527v.006H593.65v-.006L591.9,388.28h4.016Z" transform="translate(-577.962 -380.588)" fill="#e6f5ff"/>
          </g>
        </g>
      </g>
      <path id="Path_2614" data-name="Path 2614" d="M542.307,193.393c10.519,0,11.1-15.83.595-16.341q-.431-.021-.866-.021a17.548,17.548,0,0,0-5.376.842,18.048,18.048,0,0,0-35.7.569,16.706,16.706,0,0,0-11.343-1.1c-9.2,2.37-7.268,16.054,2.23,16.054Z" transform="translate(-104.496 0.559)" fill="#afddfd"/>
      <path id="Path_2615" data-name="Path 2615" d="M401.292,234.414a6.7,6.7,0,0,0,6.678-5.719,13.474,13.474,0,0,0,.122-1.811,13.305,13.305,0,0,0-13.305-13.305c-.3,0-.6.014-.9.034a14.133,14.133,0,0,0-28.216,1.2c0,.346.016.689.04,1.029a14.134,14.134,0,0,0-20.98,11.321c0,.056-.008.112-.011.168a6.736,6.736,0,0,0,6.751,7.089Z" transform="translate(-139.837 10.202)" fill="#afddfd"/>
    </g>
  </g>
</svg>
